[
  {
    "ID": 22882,
    "ID Recompensa": 4602,
    "Titulo Recompensa": "ME PERGUNTE QUALQUER COISA SOBRE PROGRAMACAO",
    "ID Usuário": 43695,
    "Nome Usuário": "Marcos",
    "Email Usuário": "marcosalexandreport2@gmail.com",
    "Tags Usuário": "",
    "Status": "Pendente",
    "Quantidade": 1,
    "Pontos": 45000,
    "Criado em": "23/04/2021"
  },
  {
    "ID": 22828,
    "ID Recompensa": 4602,
    "Titulo Recompensa": "ME PERGUNTE QUALQUER COISA SOBRE PROGRAMACAO",
    "ID Usuário": 43553,
    "Nome Usuário": "Alexandre Batista Silva",
    "Email Usuário": "xandebatistasilva@gmail.com",
    "Tags Usuário": "",
    "Status": "Pendente",
    "Quantidade": 1,
    "Pontos": 45000,
    "Criado em": "22/04/2021"
  },
  {
    "ID": 22822,
    "ID Recompensa": 4602,
    "Titulo Recompensa": "ME PERGUNTE QUALQUER COISA SOBRE PROGRAMACAO",
    "ID Usuário": 41333,
    "Nome Usuário": "Raphael Carvalho Santos",
    "Email Usuário": "raphaelsan8@gmail.com",
    "Tags Usuário": "",
    "Status": "Pendente",
    "Quantidade": 1,
    "Pontos": 45000,
    "Criado em": "22/04/2021"
  },
  {
    "ID": 22819,
    "ID Recompensa": 4602,
    "Titulo Recompensa": "ME PERGUNTE QUALQUER COISA SOBRE PROGRAMACAO",
    "ID Usuário": 35046,
    "Nome Usuário": "Lucas Araujo de Paulus",
    "Email Usuário": "lucas.apaulus012@gmail.com",
    "Tags Usuário": "",
    "Status": "Pendente",
    "Quantidade": 1,
    "Pontos": 45000,
    "Criado em": "22/04/2021"
  },
  {
    "ID": 22804,
    "ID Recompensa": 4602,
    "Titulo Recompensa": "ME PERGUNTE QUALQUER COISA SOBRE PROGRAMACAO",
    "ID Usuário": 38716,
    "Nome Usuário": "Daniel Bouvie",
    "Email Usuário": "danibouvie988@gmail.com",
    "Tags Usuário": "",
    "Status": "Pendente",
    "Quantidade": 1,
    "Pontos": 45000,
    "Criado em": "22/04/2021"
  },
  {
    "ID": 22803,
    "ID Recompensa": 4602,
    "Titulo Recompensa": "ME PERGUNTE QUALQUER COISA SOBRE PROGRAMACAO",
    "ID Usuário": 37761,
    "Nome Usuário": "Daniel leocardio santos da silva",
    "Email Usuário": "danielleocardio80@gmail.com",
    "Tags Usuário": "",
    "Status": "Pendente",
    "Quantidade": 1,
    "Pontos": 45000,
    "Criado em": "22/04/2021"
  },
  {
    "ID": 22784,
    "ID Recompensa": 4602,
    "Titulo Recompensa": "ME PERGUNTE QUALQUER COISA SOBRE PROGRAMACAO",
    "ID Usuário": 39092,
    "Nome Usuário": "Nainhama Souza Fernandes Caliman",
    "Email Usuário": "nainhama@gmail.com",
    "Tags Usuário": "",
    "Status": "Pendente",
    "Quantidade": 1,
    "Pontos": 45000,
    "Criado em": "22/04/2021"
  },
  {
    "ID": 22756,
    "ID Recompensa": 4602,
    "Titulo Recompensa": "ME PERGUNTE QUALQUER COISA SOBRE PROGRAMACAO",
    "ID Usuário": 42312,
    "Nome Usuário": "Daniel",
    "Email Usuário": "danykaram2007dok@gmail.com",
    "Tags Usuário": "",
    "Status": "Pendente",
    "Quantidade": 1,
    "Pontos": 45000,
    "Criado em": "21/04/2021"
  },
  {
    "ID": 22724,
    "ID Recompensa": 4602,
    "Titulo Recompensa": "ME PERGUNTE QUALQUER COISA SOBRE PROGRAMACAO",
    "ID Usuário": 41454,
    "Nome Usuário": "Amir Sami Salman",
    "Email Usuário": "amirsamisalman@gmail.com",
    "Tags Usuário": "",
    "Status": "Pendente",
    "Quantidade": 1,
    "Pontos": 45000,
    "Criado em": "20/04/2021"
  },
  {
    "ID": 22711,
    "ID Recompensa": 4602,
    "Titulo Recompensa": "ME PERGUNTE QUALQUER COISA SOBRE PROGRAMACAO",
    "ID Usuário": 37326,
    "Nome Usuário": "Leonardo Giroto Vieira",
    "Email Usuário": "leonardogiroto14@gmail.com",
    "Tags Usuário": "",
    "Status": "Pendente",
    "Quantidade": 1,
    "Pontos": 45000,
    "Criado em": "20/04/2021"
  },
  {
    "ID": 22679,
    "ID Recompensa": 4602,
    "Titulo Recompensa": "ME PERGUNTE QUALQUER COISA SOBRE PROGRAMACAO",
    "ID Usuário": 39148,
    "Nome Usuário": "João Vitor Guerlinger Dias",
    "Email Usuário": "jvsrguerlinger@gmail.com",
    "Tags Usuário": "",
    "Status": "Pendente",
    "Quantidade": 1,
    "Pontos": 45000,
    "Criado em": "20/04/2021"
  },
  {
    "ID": 22654,
    "ID Recompensa": 4602,
    "Titulo Recompensa": "ME PERGUNTE QUALQUER COISA SOBRE PROGRAMACAO",
    "ID Usuário": 40165,
    "Nome Usuário": "Otacílio Fonseca",
    "Email Usuário": "otaciliofonseca2019@gmail.com",
    "Tags Usuário": "",
    "Status": "Pendente",
    "Quantidade": 1,
    "Pontos": 45000,
    "Criado em": "20/04/2021"
  },
  {
    "ID": 22647,
    "ID Recompensa": 4602,
    "Titulo Recompensa": "ME PERGUNTE QUALQUER COISA SOBRE PROGRAMACAO",
    "ID Usuário": 40131,
    "Nome Usuário": "Jeremias dos santos brito",
    "Email Usuário": "jelegalzinho190@gmail.com",
    "Tags Usuário": "",
    "Status": "Pendente",
    "Quantidade": 1,
    "Pontos": 45000,
    "Criado em": "20/04/2021"
  },
  {
    "ID": 22635,
    "ID Recompensa": 4602,
    "Titulo Recompensa": "ME PERGUNTE QUALQUER COISA SOBRE PROGRAMACAO",
    "ID Usuário": 40216,
    "Nome Usuário": "Pablo Souza Nogueira",
    "Email Usuário": "pablonogueira1993@gmail.com",
    "Tags Usuário": "",
    "Status": "Pendente",
    "Quantidade": 1,
    "Pontos": 45000,
    "Criado em": "20/04/2021"
  },
  {
    "ID": 22621,
    "ID Recompensa": 4602,
    "Titulo Recompensa": "ME PERGUNTE QUALQUER COISA SOBRE PROGRAMACAO",
    "ID Usuário": 40017,
    "Nome Usuário": "Rodrigo de Jesus Rossetto",
    "Email Usuário": "rodrigor.j.r@hotmail.com",
    "Tags Usuário": "",
    "Status": "Pendente",
    "Quantidade": 1,
    "Pontos": 45000,
    "Criado em": "19/04/2021"
  },
  {
    "ID": 22600,
    "ID Recompensa": 4602,
    "Titulo Recompensa": "ME PERGUNTE QUALQUER COISA SOBRE PROGRAMACAO",
    "ID Usuário": 39613,
    "Nome Usuário": "Letícia Pereira de Andrade",
    "Email Usuário": "leticiapereiradeandrade@gmail.com",
    "Tags Usuário": "",
    "Status": "Pendente",
    "Quantidade": 1,
    "Pontos": 45000,
    "Criado em": "19/04/2021"
  },
  {
    "ID": 22579,
    "ID Recompensa": 4602,
    "Titulo Recompensa": "ME PERGUNTE QUALQUER COISA SOBRE PROGRAMACAO",
    "ID Usuário": 39037,
    "Nome Usuário": "Madson Luiz Magno da Silva",
    "Email Usuário": "MADSON.LUIZ@HOTMAIL.COM",
    "Tags Usuário": "",
    "Status": "Pendente",
    "Quantidade": 1,
    "Pontos": 45000,
    "Criado em": "19/04/2021"
  },
  {
    "ID": 22494,
    "ID Recompensa": 4602,
    "Titulo Recompensa": "ME PERGUNTE QUALQUER COISA SOBRE PROGRAMACAO",
    "ID Usuário": 37177,
    "Nome Usuário": "Murilo jucá de carvalho",
    "Email Usuário": "murilojdc18@gmail.com",
    "Tags Usuário": "",
    "Status": "Pendente",
    "Quantidade": 1,
    "Pontos": 45000,
    "Criado em": "16/04/2021"
  },
  {
    "ID": 22459,
    "ID Recompensa": 4602,
    "Titulo Recompensa": "ME PERGUNTE QUALQUER COISA SOBRE PROGRAMACAO",
    "ID Usuário": 36618,
    "Nome Usuário": "EMERSON VIRIATO MENDES",
    "Email Usuário": "viriatomendes@outlook.com",
    "Tags Usuário": "",
    "Status": "Pendente",
    "Quantidade": 1,
    "Pontos": 45000,
    "Criado em": "16/04/2021"
  },
  {
    "ID": 22454,
    "ID Recompensa": 4602,
    "Titulo Recompensa": "ME PERGUNTE QUALQUER COISA SOBRE PROGRAMACAO",
    "ID Usuário": 36429,
    "Nome Usuário": "Bruno Anunciação Souza",
    "Email Usuário": "bruno.souza58@yahoo.com.br",
    "Tags Usuário": "",
    "Status": "Pendente",
    "Quantidade": 1,
    "Pontos": 45000,
    "Criado em": "16/04/2021"
  },
  {
    "ID": 22452,
    "ID Recompensa": 4602,
    "Titulo Recompensa": "ME PERGUNTE QUALQUER COISA SOBRE PROGRAMACAO",
    "ID Usuário": 36411,
    "Nome Usuário": "Evelyn Aparecida de Souza Batista",
    "Email Usuário": "evelynsbatista@outlook.com",
    "Tags Usuário": "",
    "Status": "Pendente",
    "Quantidade": 1,
    "Pontos": 45000,
    "Criado em": "16/04/2021"
  },
  {
    "ID": 22443,
    "ID Recompensa": 4602,
    "Titulo Recompensa": "ME PERGUNTE QUALQUER COISA SOBRE PROGRAMACAO",
    "ID Usuário": 35609,
    "Nome Usuário": "Jonas Sousa de Silva",
    "Email Usuário": "weslley00canal@gmail.com",
    "Tags Usuário": "",
    "Status": "Pendente",
    "Quantidade": 1,
    "Pontos": 45000,
    "Criado em": "16/04/2021"
  },
  {
    "ID": 22442,
    "ID Recompensa": 4602,
    "Titulo Recompensa": "ME PERGUNTE QUALQUER COISA SOBRE PROGRAMACAO",
    "ID Usuário": 35609,
    "Nome Usuário": "Jonas Sousa de Silva",
    "Email Usuário": "weslley00canal@gmail.com",
    "Tags Usuário": "",
    "Status": "Pendente",
    "Quantidade": 1,
    "Pontos": 45000,
    "Criado em": "16/04/2021"
  },
  {
    "ID": 22441,
    "ID Recompensa": 4602,
    "Titulo Recompensa": "ME PERGUNTE QUALQUER COISA SOBRE PROGRAMACAO",
    "ID Usuário": 36130,
    "Nome Usuário": "Soraia Fernanda Costa Inacio",
    "Email Usuário": "soraia.fernanda@gmail.com",
    "Tags Usuário": "",
    "Status": "Pendente",
    "Quantidade": 1,
    "Pontos": 45000,
    "Criado em": "16/04/2021"
  },
  {
    "ID": 22436,
    "ID Recompensa": 4602,
    "Titulo Recompensa": "ME PERGUNTE QUALQUER COISA SOBRE PROGRAMACAO",
    "ID Usuário": 35828,
    "Nome Usuário": "Anderson Flauzino",
    "Email Usuário": "anderson_flauzino@hotmail.com",
    "Tags Usuário": "",
    "Status": "Pendente",
    "Quantidade": 1,
    "Pontos": 45000,
    "Criado em": "15/04/2021"
  },
  {
    "ID": 22423,
    "ID Recompensa": 4602,
    "Titulo Recompensa": "ME PERGUNTE QUALQUER COISA SOBRE PROGRAMACAO",
    "ID Usuário": 35828,
    "Nome Usuário": "Anderson Flauzino",
    "Email Usuário": "anderson_flauzino@hotmail.com",
    "Tags Usuário": "",
    "Status": "Pendente",
    "Quantidade": 1,
    "Pontos": 45000,
    "Criado em": "15/04/2021"
  },
  {
    "ID": 22407,
    "ID Recompensa": 4602,
    "Titulo Recompensa": "ME PERGUNTE QUALQUER COISA SOBRE PROGRAMACAO",
    "ID Usuário": 35658,
    "Nome Usuário": "Eduardo Ryan Madureira",
    "Email Usuário": "eduardoryan1111@gmail.com",
    "Tags Usuário": "",
    "Status": "Pendente",
    "Quantidade": 1,
    "Pontos": 45000,
    "Criado em": "15/04/2021"
  },
  {
    "ID": 22406,
    "ID Recompensa": 4602,
    "Titulo Recompensa": "ME PERGUNTE QUALQUER COISA SOBRE PROGRAMACAO",
    "ID Usuário": 35658,
    "Nome Usuário": "Eduardo Ryan Madureira",
    "Email Usuário": "eduardoryan1111@gmail.com",
    "Tags Usuário": "",
    "Status": "Pendente",
    "Quantidade": 1,
    "Pontos": 45000,
    "Criado em": "15/04/2021"
  },
  {
    "ID": 22395,
    "ID Recompensa": 4602,
    "Titulo Recompensa": "ME PERGUNTE QUALQUER COISA SOBRE PROGRAMACAO",
    "ID Usuário": 35260,
    "Nome Usuário": "Erislândia Dantas",
    "Email Usuário": "erislandia.dantass@gmail.com",
    "Tags Usuário": "",
    "Status": "Pendente",
    "Quantidade": 1,
    "Pontos": 45000,
    "Criado em": "15/04/2021"
  },
  {
    "ID": 22387,
    "ID Recompensa": 4602,
    "Titulo Recompensa": "ME PERGUNTE QUALQUER COISA SOBRE PROGRAMACAO",
    "ID Usuário": 35424,
    "Nome Usuário": "Igor Pacheco Da Silva",
    "Email Usuário": "pacheco99.ebfa@gmail.com",
    "Tags Usuário": "",
    "Status": "Pendente",
    "Quantidade": 1,
    "Pontos": 45000,
    "Criado em": "14/04/2021"
  },
  {
    "ID": 22374,
    "ID Recompensa": 4602,
    "Titulo Recompensa": "ME PERGUNTE QUALQUER COISA SOBRE PROGRAMACAO",
    "ID Usuário": 34857,
    "Nome Usuário": "Jedson S. Mariano",
    "Email Usuário": "jedson.mariano@gmail.com",
    "Tags Usuário": "",
    "Status": "Pendente",
    "Quantidade": 1,
    "Pontos": 45000,
    "Criado em": "14/04/2021"
  },
  {
    "ID": 22365,
    "ID Recompensa": 4602,
    "Titulo Recompensa": "ME PERGUNTE QUALQUER COISA SOBRE PROGRAMACAO",
    "ID Usuário": 34961,
    "Nome Usuário": "Vicente Carlos Silva e Silva",
    "Email Usuário": "vicentecarloshehe@gmail.com",
    "Tags Usuário": "",
    "Status": "Pendente",
    "Quantidade": 1,
    "Pontos": 45000,
    "Criado em": "14/04/2021"
  },
  {
    "ID": 22355,
    "ID Recompensa": 4602,
    "Titulo Recompensa": "ME PERGUNTE QUALQUER COISA SOBRE PROGRAMACAO",
    "ID Usuário": 34920,
    "Nome Usuário": "Levi vieira junior",
    "Email Usuário": "juninhovieiraxfhj@gmail.com",
    "Tags Usuário": "",
    "Status": "Pendente",
    "Quantidade": 1,
    "Pontos": 45000,
    "Criado em": "14/04/2021"
  },
  {
    "ID": 22354,
    "ID Recompensa": 4602,
    "Titulo Recompensa": "ME PERGUNTE QUALQUER COISA SOBRE PROGRAMACAO",
    "ID Usuário": 34920,
    "Nome Usuário": "Levi vieira junior",
    "Email Usuário": "juninhovieiraxfhj@gmail.com",
    "Tags Usuário": "",
    "Status": "Pendente",
    "Quantidade": 1,
    "Pontos": 45000,
    "Criado em": "14/04/2021"
  },
  {
    "ID": 22351,
    "ID Recompensa": 4602,
    "Titulo Recompensa": "ME PERGUNTE QUALQUER COISA SOBRE PROGRAMACAO",
    "ID Usuário": 34453,
    "Nome Usuário": "Raquel Darelli Michelon",
    "Email Usuário": "raquel.m12@aluno.ifsc.edu.br",
    "Tags Usuário": "",
    "Status": "Pendente",
    "Quantidade": 1,
    "Pontos": 45000,
    "Criado em": "14/04/2021"
  },
  {
    "ID": 22349,
    "ID Recompensa": 4602,
    "Titulo Recompensa": "ME PERGUNTE QUALQUER COISA SOBRE PROGRAMACAO",
    "ID Usuário": 34655,
    "Nome Usuário": "João Victor Firino Barbosa",
    "Email Usuário": "jvbarbosa18888@gmail.com",
    "Tags Usuário": "",
    "Status": "Pendente",
    "Quantidade": 1,
    "Pontos": 45000,
    "Criado em": "14/04/2021"
  }
]